-------------------------------------------------------------------------------
Test set: mx.com.zara.prices.entities.PricesEntityTest
-------------------------------------------------------------------------------
Tests run: 1, Failures: 0, Errors: 0, Skipped: 0, Time elapsed: 0.057 s - in mx.com.zara.prices.entities.PricesEntityTest
