-------------------------------------------------------------------------------
Test set: mx.com.zara.prices.controller.PricesControllerTest
-------------------------------------------------------------------------------
Tests run: 2, Failures: 0, Errors: 0, Skipped: 0, Time elapsed: 3.891 s - in mx.com.zara.prices.controller.PricesControllerTest
