C:\Users\w10\Desktop\Shop\src\main\java\mx\com\zara\prices\service\PricesService.java
C:\Users\w10\Desktop\Shop\src\main\java\mx\com\zara\prices\model\PricesRequest.java
C:\Users\w10\Desktop\Shop\src\main\java\mx\com\zara\prices\entities\PricesEntity.java
C:\Users\w10\Desktop\Shop\src\main\java\mx\com\zara\prices\repository\PricesRepository.java
C:\Users\w10\Desktop\Shop\src\main\java\mx\com\zara\prices\controller\PricesController.java
C:\Users\w10\Desktop\Shop\src\main\java\mx\com\zara\prices\model\PricesResponse.java
C:\Users\w10\Desktop\Shop\src\main\java\mx\com\zara\prices\ShopApplication.java
